{
    "count": 142,
    "next": "https://mainnet.analytics.tinyman.org/api/v1/pools/?limit=10&offset=10&ordering=-liquidity&verified_only=true&with_statistics=true",
    "previous": null,
    "results": [
        {
            "address": "XLNMBK3GMC4YEF562DMEOZEYTNDWJLQRN2GFQ3MGLVNIJTOTVGVD75DVKM",
            "asset_1": {
                "id": "470842789",
                "is_liquidity_token": false,
                "name": "Defly Token",
                "unit_name": "DEFLY",
                "decimals": 6,
                "total_amount": "1000000000000000",
                "url": "defly.blockshake.io",
                "is_verified": true
            },
            "asset_2": {
                "id": "0",
                "is_liquidity_token": false,
                "name": "Algorand",
                "unit_name": "ALGO",
                "decimals": 6,
                "total_amount": null,
                "url": "https://algorand.org",
                "is_verified": true
            },
            "liquidity_asset": {
                "id": "552687530",
                "is_liquidity_token": true,
                "name": "TinymanPool1.1 DEFLY-ALGO",
                "unit_name": "TMPOOL11",
                "decimals": 6,
                "total_amount": "18446744073709551615",
                "url": "https://tinyman.org",
                "is_verified": false
            },
            "is_verified": true,
            "current_asset_1_reserves": "111651549400284",
            "current_asset_2_reserves": "989292881053",
            "current_issued_liquidity_assets": "10475797107945",
            "current_unclaimed_protocol_fees": "6224504339",
            "current_asset_1_reserves_in_usd": "1223142.723680",
            "current_asset_2_reserves_in_usd": "1223149.846619",
            "creation_round": "18727078",
            "liquidity_in_usd": "2446292.570299",
            "last_day_volume_in_usd": "2261390.273056",
            "last_week_volume_in_usd": "2261390.273056",
            "last_day_fees_in_usd": "6784.170790",
            "annual_percentage_rate": null,
            "annual_percentage_yield": null
        },
        {
            "address": "KX6S647W6BEN6XHEJVMXK3UYLVNGT2Q6PHQSF5AA2JSSDFSOX7R4MESXRY",
            "asset_1": {
                "id": "226701642",
                "is_liquidity_token": false,
                "name": "Yieldly",
                "unit_name": "YLDY",
                "decimals": 6,
                "total_amount": "10000000000000000",
                "url": "",
                "is_verified": true
            },
            "asset_2": {
                "id": "0",
                "is_liquidity_token": false,
                "name": "Algorand",
                "unit_name": "ALGO",
                "decimals": 6,
                "total_amount": null,
                "url": "https://algorand.org",
                "is_verified": true
            },
            "liquidity_asset": {
                "id": "552655440",
                "is_liquidity_token": true,
                "name": "TinymanPool1.1 YLDY-ALGO",
                "unit_name": "TMPOOL11",
                "decimals": 6,
                "total_amount": "18446744073709551615",
                "url": "https://tinyman.org",
                "is_verified": false
            },
            "is_verified": true,
            "current_asset_1_reserves": "65584976263943",
            "current_asset_2_reserves": "712684434725",
            "current_issued_liquidity_assets": "6005175717854",
            "current_unclaimed_protocol_fees": "3036112813",
            "current_asset_1_reserves_in_usd": "882970.535441",
            "current_asset_2_reserves_in_usd": "881154.482881",
            "creation_round": "18726645",
            "liquidity_in_usd": "1764125.018322",
            "last_day_volume_in_usd": "1922738.608024",
            "last_week_volume_in_usd": "1922738.608024",
            "last_day_fees_in_usd": "5768.215816",
            "annual_percentage_rate": null,
            "annual_percentage_yield": null
        },
        {
            "address": "AJSPYMRPGC5GLPS6DC3H42OIBID3GXKX576BWPOLVLHAMQ5AH2SOEABT7Y",
            "asset_1": {
                "id": "523683256",
                "is_liquidity_token": false,
                "name": "AKITA INU",
                "unit_name": "AKTA",
                "decimals": 6,
                "total_amount": "1000000000000000",
                "url": "https://akita.community/",
                "is_verified": true
            },
            "asset_2": {
                "id": "0",
                "is_liquidity_token": false,
                "name": "Algorand",
                "unit_name": "ALGO",
                "decimals": 6,
                "total_amount": null,
                "url": "https://algorand.org",
                "is_verified": true
            },
            "liquidity_asset": {
                "id": "552662141",
                "is_liquidity_token": true,
                "name": "TinymanPool1.1 AKTA-ALGO",
                "unit_name": "TMPOOL11",
                "decimals": 6,
                "total_amount": "18446744073709551615",
                "url": "https://tinyman.org",
                "is_verified": false
            },
            "is_verified": true,
            "current_asset_1_reserves": "36470569649773",
            "current_asset_2_reserves": "305245990717",
            "current_issued_liquidity_assets": "3303530242722",
            "current_unclaimed_protocol_fees": "817829222",
            "current_asset_1_reserves_in_usd": "377397.454736",
            "current_asset_2_reserves_in_usd": "377389.964885",
            "creation_round": "18726805",
            "liquidity_in_usd": "754787.419621",
            "last_day_volume_in_usd": "393552.789797",
            "last_week_volume_in_usd": "393552.789797",
            "last_day_fees_in_usd": "1180.658379",
            "annual_percentage_rate": null,
            "annual_percentage_yield": null
        },
        {
            "address": "A6CBKEIYKZJO4H564PBYRUU7IH3LUUZ5SDSSR6KC2N4XSZUBR2WQFSTEYE",
            "asset_1": {
                "id": "226701642",
                "is_liquidity_token": false,
                "name": "Yieldly",
                "unit_name": "YLDY",
                "decimals": 6,
                "total_amount": "10000000000000000",
                "url": "",
                "is_verified": true
            },
            "asset_2": {
                "id": "163650",
                "is_liquidity_token": false,
                "name": "Asia Reserve Currency Coin",
                "unit_name": "ARCC",
                "decimals": 6,
                "total_amount": "88616203378510000",
                "url": "https://arcc.io",
                "is_verified": true
            },
            "liquidity_asset": {
                "id": "553056313",
                "is_liquidity_token": true,
                "name": "TinymanPool1.1 YLDY-ARCC",
                "unit_name": "TMPOOL11",
                "decimals": 6,
                "total_amount": "18446744073709551615",
                "url": "https://tinyman.org",
                "is_verified": false
            },
            "is_verified": true,
            "current_asset_1_reserves": "19620449600640",
            "current_asset_2_reserves": "1860795634838",
            "current_issued_liquidity_assets": "6001535608696",
            "current_unclaimed_protocol_fees": "422364315",
            "current_asset_1_reserves_in_usd": "264150.112973",
            "current_asset_2_reserves_in_usd": "263661.715887",
            "creation_round": "18729396",
            "liquidity_in_usd": "527811.828860",
            "last_day_volume_in_usd": "81609.952449",
            "last_week_volume_in_usd": "81609.952449",
            "last_day_fees_in_usd": "244.829855",
            "annual_percentage_rate": null,
            "annual_percentage_yield": null
        },
        {
            "address": "FPOU46NBKTWUZCNMNQNXRWNW3SMPOOK4ZJIN5WSILCWP662ANJLTXVRUKA",
            "asset_1": {
                "id": "31566704",
                "is_liquidity_token": false,
                "name": "USDC",
                "unit_name": "USDC",
                "decimals": 6,
                "total_amount": "18446744073709551615",
                "url": "https://www.centre.io/usdc",
                "is_verified": true
            },
            "asset_2": {
                "id": "0",
                "is_liquidity_token": false,
                "name": "Algorand",
                "unit_name": "ALGO",
                "decimals": 6,
                "total_amount": null,
                "url": "https://algorand.org",
                "is_verified": true
            },
            "liquidity_asset": {
                "id": "552647097",
                "is_liquidity_token": true,
                "name": "TinymanPool1.1 USDC-ALGO",
                "unit_name": "TMPOOL11",
                "decimals": 6,
                "total_amount": "18446744073709551615",
                "url": "https://tinyman.org",
                "is_verified": false
            },
            "is_verified": true,
            "current_asset_1_reserves": "194946150924",
            "current_asset_2_reserves": "157673898021",
            "current_issued_liquidity_assets": "174368392086",
            "current_unclaimed_protocol_fees": "143824197",
            "current_asset_1_reserves_in_usd": "194946.150924",
            "current_asset_2_reserves_in_usd": "194946.115426",
            "creation_round": "18726480",
            "liquidity_in_usd": "389892.266350",
            "last_day_volume_in_usd": "655201.388895",
            "last_week_volume_in_usd": "655201.388895",
            "last_day_fees_in_usd": "1965.604195",
            "annual_percentage_rate": null,
            "annual_percentage_yield": null
        },
        {
            "address": "H3DSZ4DXLJQ7OXG3NQUSGS2NXDNQG4BVZRWJWGGWDOVORHRTLE2IVJYGT4",
            "asset_1": {
                "id": "226265212",
                "is_liquidity_token": false,
                "name": "AlgoNuts",
                "unit_name": "ACORN",
                "decimals": 0,
                "total_amount": "1000000000",
                "url": "",
                "is_verified": true
            },
            "asset_2": {
                "id": "0",
                "is_liquidity_token": false,
                "name": "Algorand",
                "unit_name": "ALGO",
                "decimals": 6,
                "total_amount": null,
                "url": "https://algorand.org",
                "is_verified": true
            },
            "liquidity_asset": {
                "id": "552642388",
                "is_liquidity_token": true,
                "name": "TinymanPool1.1 ACORN-ALGO",
                "unit_name": "TMPOOL11",
                "decimals": 6,
                "total_amount": "18446744073709551615",
                "url": "https://tinyman.org",
                "is_verified": false
            },
            "is_verified": true,
            "current_asset_1_reserves": "93171796",
            "current_asset_2_reserves": "111002627923",
            "current_issued_liquidity_assets": "3214041312",
            "current_unclaimed_protocol_fees": "352870",
            "current_asset_1_reserves_in_usd": "137242.055508",
            "current_asset_2_reserves_in_usd": "137242.317132",
            "creation_round": "18726421",
            "liquidity_in_usd": "274484.372640",
            "last_day_volume_in_usd": "61384.885935",
            "last_week_volume_in_usd": "61384.885935",
            "last_day_fees_in_usd": "184.158659",
            "annual_percentage_rate": null,
            "annual_percentage_yield": null
        },
        {
            "address": "4QDLMVQORYVMBABY2EXGIVK53TBJWURS4PH2OC2TMOGKSZVMTOA6XHHZE4",
            "asset_1": {
                "id": "137594422",
                "is_liquidity_token": false,
                "name": "HEADLINE",
                "unit_name": "HDL",
                "decimals": 6,
                "total_amount": "25000000000000",
                "url": "headline.dev",
                "is_verified": true
            },
            "asset_2": {
                "id": "0",
                "is_liquidity_token": false,
                "name": "Algorand",
                "unit_name": "ALGO",
                "decimals": 6,
                "total_amount": null,
                "url": "https://algorand.org",
                "is_verified": true
            },
            "liquidity_asset": {
                "id": "552706313",
                "is_liquidity_token": true,
                "name": "TinymanPool1.1 HDL-ALGO",
                "unit_name": "TMPOOL11",
                "decimals": 6,
                "total_amount": "18446744073709551615",
                "url": "https://tinyman.org",
                "is_verified": false
            },
            "is_verified": true,
            "current_asset_1_reserves": "118492882953",
            "current_asset_2_reserves": "96061222539",
            "current_issued_liquidity_assets": "105876739562",
            "current_unclaimed_protocol_fees": "46325508",
            "current_asset_1_reserves_in_usd": "116312.732400",
            "current_asset_2_reserves_in_usd": "118768.942813",
            "creation_round": "18727207",
            "liquidity_in_usd": "235081.675213",
            "last_day_volume_in_usd": "226305.277063",
            "last_week_volume_in_usd": "226305.277063",
            "last_day_fees_in_usd": "678.915823",
            "annual_percentage_rate": null,
            "annual_percentage_yield": null
        },
        {
            "address": "GWP2OFLBXSWVT5ZGOQWXUPOVU25F6BOT56TY7F5Q6AC3FAAOSVYUZU4FME",
            "asset_1": {
                "id": "31566704",
                "is_liquidity_token": false,
                "name": "USDC",
                "unit_name": "USDC",
                "decimals": 6,
                "total_amount": "18446744073709551615",
                "url": "https://www.centre.io/usdc",
                "is_verified": true
            },
            "asset_2": {
                "id": "163650",
                "is_liquidity_token": false,
                "name": "Asia Reserve Currency Coin",
                "unit_name": "ARCC",
                "decimals": 6,
                "total_amount": "88616203378510000",
                "url": "https://arcc.io",
                "is_verified": true
            },
            "liquidity_asset": {
                "id": "553245882",
                "is_liquidity_token": true,
                "name": "TinymanPool1.1 USDC-ARCC",
                "unit_name": "TMPOOL11",
                "decimals": 6,
                "total_amount": "18446744073709551615",
                "url": "https://tinyman.org",
                "is_verified": false
            },
            "is_verified": true,
            "current_asset_1_reserves": "111807567982",
            "current_asset_2_reserves": "789085605510",
            "current_issued_liquidity_assets": "296831681394",
            "current_unclaimed_protocol_fees": "38912765",
            "current_asset_1_reserves_in_usd": "111807.567982",
            "current_asset_2_reserves_in_usd": "112173.253337",
            "creation_round": "18730889",
            "liquidity_in_usd": "223980.821319",
            "last_day_volume_in_usd": "62388.258010",
            "last_week_volume_in_usd": "62388.258010",
            "last_day_fees_in_usd": "187.164770",
            "annual_percentage_rate": null,
            "annual_percentage_yield": null
        },
        {
            "address": "WXP6JH3RVKG45Z2E4SB7AKZW6KJDVAQYTH6XZD5A6RYHZPZBQ3XTJFD56Q",
            "asset_1": {
                "id": "230946361",
                "is_liquidity_token": false,
                "name": "AlgoGems",
                "unit_name": "GEMS",
                "decimals": 6,
                "total_amount": "10000000000000",
                "url": "https://www.algogems.io",
                "is_verified": true
            },
            "asset_2": {
                "id": "0",
                "is_liquidity_token": false,
                "name": "Algorand",
                "unit_name": "ALGO",
                "decimals": 6,
                "total_amount": null,
                "url": "https://algorand.org",
                "is_verified": true
            },
            "liquidity_asset": {
                "id": "552679448",
                "is_liquidity_token": true,
                "name": "TinymanPool1.1 GEMS-ALGO",
                "unit_name": "TMPOOL11",
                "decimals": 6,
                "total_amount": "18446744073709551615",
                "url": "https://tinyman.org",
                "is_verified": false
            },
            "is_verified": true,
            "current_asset_1_reserves": "316539643947",
            "current_asset_2_reserves": "79633047896",
            "current_issued_liquidity_assets": "158670687372",
            "current_unclaimed_protocol_fees": "18800364",
            "current_asset_1_reserves_in_usd": "99166.489275",
            "current_asset_2_reserves_in_usd": "99016.846617",
            "creation_round": "18727012",
            "liquidity_in_usd": "198183.335892",
            "last_day_volume_in_usd": "47553.233036",
            "last_week_volume_in_usd": "47553.233036",
            "last_day_fees_in_usd": "142.659703",
            "annual_percentage_rate": null,
            "annual_percentage_yield": null
        },
        {
            "address": "34UK57GUXQJS7RQVGGQOKSCFCVD5XWP4RQIQN5S723C5AR37BWBRFWWSHA",
            "asset_1": {
                "id": "388592191",
                "is_liquidity_token": false,
                "name": "Chips",
                "unit_name": "chip",
                "decimals": 1,
                "total_amount": "10000000000",
                "url": "",
                "is_verified": true
            },
            "asset_2": {
                "id": "0",
                "is_liquidity_token": false,
                "name": "Algorand",
                "unit_name": "ALGO",
                "decimals": 6,
                "total_amount": null,
                "url": "https://algorand.org",
                "is_verified": true
            },
            "liquidity_asset": {
                "id": "552665159",
                "is_liquidity_token": true,
                "name": "TinymanPool1.1 chip-ALGO",
                "unit_name": "TMPOOL11",
                "decimals": 6,
                "total_amount": "18446744073709551615",
                "url": "https://tinyman.org",
                "is_verified": false
            },
            "is_verified": true,
            "current_asset_1_reserves": "52801565",
            "current_asset_2_reserves": "77548142397",
            "current_issued_liquidity_assets": "2017633853",
            "current_unclaimed_protocol_fees": "496384",
            "current_asset_1_reserves_in_usd": "95834.840475",
            "current_asset_2_reserves_in_usd": "95879.592682",
            "creation_round": "18726845",
            "liquidity_in_usd": "191714.433157",
            "last_day_volume_in_usd": "110615.668371",
            "last_week_volume_in_usd": "110615.668371",
            "last_day_fees_in_usd": "331.844715",
            "annual_percentage_rate": null,
            "annual_percentage_yield": null
        }
    ]
}